1 R: Una introducción desde la exploración de información | Análisis de datos espaciales con R
…
## [1] 76 55

Recuerda la notación que mencionamos antes, “paquete::función”; además, si el paquete está cargado, no es necesario especificar su nombre al usar la función; al arrancar cada sesión de R, un conjunto de paquetes se cargan de forma automática, dichos paquetes aparecen marcados con una palomita, \(\checkmark\), en la pestaña Packages en la sección de archivo.

Ahora bien, si deseas ver la base completa puedes llamarla a una nueva pestaña que se visualizará en la sección de fuente. Usa la siguiente instrucción:

utils::View(covid_zmvm)
#Que es equivalente a:
View(covid_zmvm)

Alternativamente, puedes llamar la base para que aparezca en la consola, lo que no siempre es recomendable si la base es muy grande.

base::print(covid_zmvm)

## # A tibble: 76 x 55
##    cvemun cve_mun nom_mun    cve_ent nom_ent  nom_abr nom_zm    cvm   ext  pob20
##    <chr>  <chr>   <chr>      <chr>   <chr>    <chr>   <chr>   <dbl> <dbl>  <dbl>
##  1 09010  010     Álvaro Ob~ 09      Ciudad ~ CDMX    Valle ~  9.01  96.2 759137
##  2 09012  012     Tlalpan    09      Ciudad ~ CDMX    Valle ~  9.01 310.  699928
##  3 09015  015     Cuauhtémoc 09      Ciudad ~ CDMX    Valle ~  9.01  32.5 545884
##  4 09017  017     Venustian~ 09      Ciudad ~ CDMX    Valle ~  9.01  33.9 443704
##  5 09011  011     Tláhuac    09      Ciudad ~ CDMX    Valle ~  9.01  85.8 392313
##  6 09002  002     Azcapotza~ 09      Ciudad ~ CDMX    Valle ~  9.01  33.5 432205
##  7 09003  003     Coyoacán   09      Ciudad ~ CDMX    Valle ~  9.01  53.9 614447
##  8 09013  013     Xochimilco 09      Ciudad ~ CDMX    Valle ~  9.01 118.  442178
##  9 09004  004     Cuajimalp~ 09      Ciudad ~ CDMX    Valle ~  9.01  71.2 217686
## 10 09016  016     Miguel Hi~ 09      Ciudad ~ CDMX    Valle ~  9.01  46.4 414470
## # ... with 66 more rows, and 45 more variables: pob20_h <dbl>, pob20_m <dbl>,
## #   positivos <dbl>, defuncione <dbl>, pos_mil <dbl>, pos_hab <dbl>,
## #   def_hab <dbl>, ss <dbl>, ppob_sines <dbl>, ppob_basi <dbl>,
## #   ppob_media <dbl>, ppob_sup <dbl>, ocviv <dbl>, occu <dbl>,
## #   pintegra4_ <dbl>, pintegra6_ <dbl>, pintegra8_ <dbl>, ppob_5_o_m <dbl>,
## #   ppob_3_o_m <dbl>, ppob_1 <dbl>, ppob_1dorm <dbl>, ppob_2dorm <dbl>,
## #   ppob_3dorm <dbl>, pviv_ocu5_ <dbl>, pviv_ocu7_ <dbl>, pviv_ocu9_ <dbl>, ...
…
1.5 Manipulación de la información

1.5.1 Seleccionar variables

Tareas relacionadas con la preparación y manipulación de datos, que en una hoja de cálculo como Excel de Office o Calc de LibreOffice, son rutinarias y muy sencillas, a veces en R pueden significar un dolor de cabeza. No obstante, dentro de los paquetes de la familia tidyverse encontramos dplyr. Este paquete brinda herramientas de manipulación de datos basadas en “gramática”, que no es otra cosa que funciones (“verbos”) que permiten seleccionar o filtrar elementos en una base de datos, o bien, agrupar y crear nuevas variables.

Si deseas profundizar en el conocimiento de este potente paquete consulta la Introducción al paquete dplyr, o bien, su Viñeta de ayuda.

La base de datos que cargamos contiene 55 columnas, es decir, 55 variables. Quizá para su análisis no te sean de interés todas, por lo que querrías generar una base de datos más compacta mediante la selección de algunas que son de utilidad. Para llevar a cabo dicha tarea echaremos mano de la función select(), pero antes de hacerlo, es necesario introducir el operador “tubería”, pipe (%>%).

Este operador sirve para indicar cada fase del proceso por el que un objeto es tratado a través de la aplicación de diferentes funciones u operaciones. Por ejemplo, queremos que la base covid_zmvm “pase” por un proceso que consiste en la selección de sólo algunas variables. Comencemos usando el “verbo” seleccionar, select(), para una sola variable, por ejemplo pos_hab:

covid_zmvm %>% dplyr::select(pos_hab)

## # A tibble: 76 x 1
##    pos_hab
##      <dbl>
##  1    14.4
##  2    17.0
##  3    13.4
##  4    16.2
##  5    17.4
##  6    17.3
##  7    14.9
##  8    17.4
##  9    18.7
## 10    13.7
## # ... with 66 more rows

La instrucción anterior es equivalente a escribir lo siguiente:

dplyr::select(covid_zmvm,pos_hab)

## # A tibble: 76 x 1
##    pos_hab
##      <dbl>
##  1    14.4
##  2    17.0
##  3    13.4
##  4    16.2
##  5    17.4
##  6    17.3
##  7    14.9
##  8    17.4
##  9    18.7
## 10    13.7
## # ... with 66 more rows

Así, usar el operador tubería permite no sólo ahorrar la escritura de algunos argumentos, sino simplificar la forma en que las instrucciones dadas a R son leídas por un ser humano. Veamos cómo seleccionar ahora, por ejemplo, tres variables: la clave de municipio (cvemun), los casos positivos (pos_hab) y el grado de marginación (gm_2020):

covid_zmvm %>% dplyr::select(cvemun,pos_hab,gm_2020)

## # A tibble: 76 x 3
##    cvemun pos_hab gm_2020 
##    <chr>    <dbl> <chr>   
##  1 09010     14.4 Muy Bajo
##  2 09012     17.0 Muy Bajo
##  3 09015     13.4 Muy Bajo
##  4 09017     16.2 Muy Bajo
##  5 09011     17.4 Muy Bajo
##  6 09002     17.3 Muy Bajo
##  7 09003     14.9 Muy Bajo
##  8 09013     17.4 Muy Bajo
##  9 09004     18.7 Muy Bajo
## 10 09016     13.7 Muy Bajo
## # ... with 66 more rows

Ahora, imagina que queremos todas las variables excepto el nombre de la Zona Metropolitana, nom_zm. Sería ocioso colocar todos los nombres de las variables menos el citado. Para hacer esto más eficiente es necesario introducir solamente un signo de menos (-) antes del nombre de la variable, para de esta sencilla forma seleccionar todas las variables menos nom_zm.

covid_zmvm %>% dplyr::select(-nom_zm)

## # A tibble: 76 x 54
##    cvemun cve_mun nom_mun    cve_ent nom_ent  nom_abr   cvm   ext  pob20 pob20_h
##    <chr>  <chr>   <chr>      <chr>   <chr>    <chr>   <dbl> <dbl>  <dbl>   <dbl>
##  1 09010  010     Álvaro Ob~ 09      Ciudad ~ CDMX     9.01  96.2 759137  361007
##  2 09012  012     Tlalpan    09      Ciudad ~ CDMX     9.01 310.  699928  334877
##  3 09015  015     Cuauhtémoc 09      Ciudad ~ CDMX     9.01  32.5 545884  260951
##  4 09017  017     Venustian~ 09      Ciudad ~ CDMX     9.01  33.9 443704  210118
##  5 09011  011     Tláhuac    09      Ciudad ~ CDMX     9.01  85.8 392313  190190
##  6 09002  002     Azcapotza~ 09      Ciudad ~ CDMX     9.01  33.5 432205  204950
##  7 09003  003     Coyoacán   09      Ciudad ~ CDMX     9.01  53.9 614447  289110
##  8 09013  013     Xochimilco 09      Ciudad ~ CDMX     9.01 118.  442178  215452
##  9 09004  004     Cuajimalp~ 09      Ciudad ~ CDMX     9.01  71.2 217686  104149
## 10 09016  016     Miguel Hi~ 09      Ciudad ~ CDMX     9.01  46.4 414470  195467
## # ... with 66 more rows, and 44 more variables: pob20_m <dbl>, positivos <dbl>,
## #   defuncione <dbl>, pos_mil <dbl>, pos_hab <dbl>, def_hab <dbl>, ss <dbl>,
## #   ppob_sines <dbl>, ppob_basi <dbl>, ppob_media <dbl>, ppob_sup <dbl>,
## #   ocviv <dbl>, occu <dbl>, pintegra4_ <dbl>, pintegra6_ <dbl>,
## #   pintegra8_ <dbl>, ppob_5_o_m <dbl>, ppob_3_o_m <dbl>, ppob_1 <dbl>,
## #   ppob_1dorm <dbl>, ppob_2dorm <dbl>, ppob_3dorm <dbl>, pviv_ocu5_ <dbl>,
## #   pviv_ocu7_ <dbl>, pviv_ocu9_ <dbl>, analf <dbl>, sbasc <dbl>, ...

En lugar de usar los nombres de las variables, puedes recurrir al número de columna en la que se hallan, contando a partir del 1. Por ejemplo, nom_mun es la columna 3 y pos_hab es la columna 16, entonces podríamos escribir:

covid_zmvm %>% dplyr::select(3,16)

## # A tibble: 76 x 2
##    nom_mun               pos_hab
##    <chr>                   <dbl>
##  1 Álvaro Obregón           14.4
##  2 Tlalpan                  17.0
##  3 Cuauhtémoc               13.4
##  4 Venustiano Carranza      16.2
##  5 Tláhuac                  17.4
##  6 Azcapotzalco             17.3
##  7 Coyoacán                 14.9
##  8 Xochimilco               17.4
##  9 Cuajimalpa de Morelos    18.7
## 10 Miguel Hidalgo           13.7
## # ... with 66 more rows

Y si es de nuestro interés seleccionar un número consecutivo de columnas, podemos servirnos de:

covid_zmvm %>% dplyr::select(1:10)

## # A tibble: 76 x 10
##    cvemun cve_mun nom_mun    cve_ent nom_ent  nom_abr nom_zm    cvm   ext  pob20
##    <chr>  <chr>   <chr>      <chr>   <chr>    <chr>   <chr>   <dbl> <dbl>  <dbl>
##  1 09010  010     Álvaro Ob~ 09      Ciudad ~ CDMX    Valle ~  9.01  96.2 759137
##  2 09012  012     Tlalpan    09      Ciudad ~ CDMX    Valle ~  9.01 310.  699928
##  3 09015  015     Cuauhtémoc 09      Ciudad ~ CDMX    Valle ~  9.01  32.5 545884
##  4 09017  017     Venustian~ 09      Ciudad ~ CDMX    Valle ~  9.01  33.9 443704
##  5 09011  011     Tláhuac    09      Ciudad ~ CDMX    Valle ~  9.01  85.8 392313
##  6 09002  002     Azcapotza~ 09      Ciudad ~ CDMX    Valle ~  9.01  33.5 432205
##  7 09003  003     Coyoacán   09      Ciudad ~ CDMX    Valle ~  9.01  53.9 614447
##  8 09013  013     Xochimilco 09      Ciudad ~ CDMX    Valle ~  9.01 118.  442178
##  9 09004  004     Cuajimalp~ 09      Ciudad ~ CDMX    Valle ~  9.01  71.2 217686
## 10 09016  016     Miguel Hi~ 09      Ciudad ~ CDMX    Valle ~  9.01  46.4 414470
## # ... with 66 more rows
…
<
mayor que

>
menor que

&
y

Entonces, para usar la función filter() y tomando como base la información previa:

covid_zmvm %>% dplyr::filter(cve_ent=="15")

## # A tibble: 59 x 55
##    cvemun cve_mun nom_mun     cve_ent nom_ent nom_abr nom_zm    cvm   ext  pob20
##    <chr>  <chr>   <chr>       <chr>   <chr>   <chr>   <chr>   <dbl> <dbl>  <dbl>
##  1 15002  002     Acolman     15      México  Mex.    Valle ~  9.01  83.9 171507
##  2 15009  009     Amecameca   15      México  Mex.    Valle ~  9.01 189.   53441
##  3 15010  010     Apaxco      15      México  Mex.    Valle ~  9.01  75.7  31898
##  4 15011  011     Atenco      15      México  Mex.    Valle ~  9.01  84.6  75489
##  5 15013  013     Atizapán d~ 15      México  Mex.    Valle ~  9.01  91.1 523674
##  6 15015  015     Atlautla    15      México  Mex.    Valle ~  9.01 162.   31900
##  7 15016  016     Axapusco    15      México  Mex.    Valle ~  9.01 231.   29128
##  8 15017  017     Ayapango    15      México  Mex.    Valle ~  9.01  36.4  10053
##  9 15020  020     Coacalco d~ 15      México  Mex.    Valle ~  9.01  35.1 293444
## 10 15022  022     Cocotitlán  15      México  Mex.    Valle ~  9.01  15.0  15107
## # ... with 49 more rows, and 45 more variables: pob20_h <dbl>, pob20_m <dbl>,
## #   positivos <dbl>, defuncione <dbl>, pos_mil <dbl>, pos_hab <dbl>,
## #   def_hab <dbl>, ss <dbl>, ppob_sines <dbl>, ppob_basi <dbl>,
## #   ppob_media <dbl>, ppob_sup <dbl>, ocviv <dbl>, occu <dbl>,
## #   pintegra4_ <dbl>, pintegra6_ <dbl>, pintegra8_ <dbl>, ppob_5_o_m <dbl>,
## #   ppob_3_o_m <dbl>, ppob_1 <dbl>, ppob_1dorm <dbl>, ppob_2dorm <dbl>,
## #   ppob_3dorm <dbl>, pviv_ocu5_ <dbl>, pviv_ocu7_ <dbl>, pviv_ocu9_ <dbl>, ...

#O bien
covid_zmvm %>% dplyr::filter(nom_ent=="México")

## # A tibble: 59 x 55
##    cvemun cve_mun nom_mun     cve_ent nom_ent nom_abr nom_zm    cvm   ext  pob20
##    <chr>  <chr>   <chr>       <chr>   <chr>   <chr>   <chr>   <dbl> <dbl>  <dbl>
##  1 15002  002     Acolman     15      México  Mex.    Valle ~  9.01  83.9 171507
##  2 15009  009     Amecameca   15      México  Mex.    Valle ~  9.01 189.   53441
##  3 15010  010     Apaxco      15      México  Mex.    Valle ~  9.01  75.7  31898
##  4 15011  011     Atenco      15      México  Mex.    Valle ~  9.01  84.6  75489
##  5 15013  013     Atizapán d~ 15      México  Mex.    Valle ~  9.01  91.1 523674
##  6 15015  015     Atlautla    15      México  Mex.    Valle ~  9.01 162.   31900
##  7 15016  016     Axapusco    15      México  Mex.    Valle ~  9.01 231.   29128
##  8 15017  017     Ayapango    15      México  Mex.    Valle ~  9.01  36.4  10053
##  9 15020  020     Coacalco d~ 15      México  Mex.    Valle ~  9.01  35.1 293444
## 10 15022  022     Cocotitlán  15      México  Mex.    Valle ~  9.01  15.0  15107
## # ... with 49 more rows, and 45 more variables: pob20_h <dbl>, pob20_m <dbl>,
## #   positivos <dbl>, defuncione <dbl>, pos_mil <dbl>, pos_hab <dbl>,
## #   def_hab <dbl>, ss <dbl>, ppob_sines <dbl>, ppob_basi <dbl>,
## #   ppob_media <dbl>, ppob_sup <dbl>, ocviv <dbl>, occu <dbl>,
## #   pintegra4_ <dbl>, pintegra6_ <dbl>, pintegra8_ <dbl>, ppob_5_o_m <dbl>,
## #   ppob_3_o_m <dbl>, ppob_1 <dbl>, ppob_1dorm <dbl>, ppob_2dorm <dbl>,
## #   ppob_3dorm <dbl>, pviv_ocu5_ <dbl>, pviv_ocu7_ <dbl>, pviv_ocu9_ <dbl>, ...

Para hacer una selección de dos entidades, incluiremos dos expresiones en una misma consulta echando mano del operador lógico “o”, identificado con el signo |:

covid_zmvm %>% dplyr::filter(cve_ent=="09"|cve_ent=="15")

## # A tibble: 75 x 55
##    cvemun cve_mun nom_mun    cve_ent nom_ent  nom_abr nom_zm    cvm   ext  pob20
##    <chr>  <chr>   <chr>      <chr>   <chr>    <chr>   <chr>   <dbl> <dbl>  <dbl>
##  1 09010  010     Álvaro Ob~ 09      Ciudad ~ CDMX    Valle ~  9.01  96.2 759137
##  2 09012  012     Tlalpan    09      Ciudad ~ CDMX    Valle ~  9.01 310.  699928
##  3 09015  015     Cuauhtémoc 09      Ciudad ~ CDMX    Valle ~  9.01  32.5 545884
##  4 09017  017     Venustian~ 09      Ciudad ~ CDMX    Valle ~  9.01  33.9 443704
##  5 09011  011     Tláhuac    09      Ciudad ~ CDMX    Valle ~  9.01  85.8 392313
##  6 09002  002     Azcapotza~ 09      Ciudad ~ CDMX    Valle ~  9.01  33.5 432205
##  7 09003  003     Coyoacán   09      Ciudad ~ CDMX    Valle ~  9.01  53.9 614447
##  8 09013  013     Xochimilco 09      Ciudad ~ CDMX    Valle ~  9.01 118.  442178
##  9 09004  004     Cuajimalp~ 09      Ciudad ~ CDMX    Valle ~  9.01  71.2 217686
## 10 09016  016     Miguel Hi~ 09      Ciudad ~ CDMX    Valle ~  9.01  46.4 414470
## # ... with 65 more rows, and 45 more variables: pob20_h <dbl>, pob20_m <dbl>,
## #   positivos <dbl>, defuncione <dbl>, pos_mil <dbl>, pos_hab <dbl>,
## #   def_hab <dbl>, ss <dbl>, ppob_sines <dbl>, ppob_basi <dbl>,
## #   ppob_media <dbl>, ppob_sup <dbl>, ocviv <dbl>, occu <dbl>,
## #   pintegra4_ <dbl>, pintegra6_ <dbl>, pintegra8_ <dbl>, ppob_5_o_m <dbl>,
## #   ppob_3_o_m <dbl>, ppob_1 <dbl>, ppob_1dorm <dbl>, ppob_2dorm <dbl>,
## #   ppob_3dorm <dbl>, pviv_ocu5_ <dbl>, pviv_ocu7_ <dbl>, pviv_ocu9_ <dbl>, ...
…
Selecciona los municipios con una extensión territorial mayor a 84 \(km^2\).

Selecciona los municipios con entre 10 y 20 casos positivos por cada mil habitantes.

Selecciona los municipios del Estado de México que tengan más de 10 años promedio de estudio y menos de 10 casos positivos por cada mil habitantes.

¿Qué otros filtros relevantes podrías pensar y elaborar?

1.5.3 Ordenar

Una operación útil, cuando se analiza información, tiene que ver con ordenar la base de datos con arreglo al valor de una variable. En R con dplyr de tidyverse esto se hace con la función arrange(), por ejemplo:

covid_zmvm %>% dplyr::arrange(cvemun)

## # A tibble: 76 x 55
##    cvemun cve_mun nom_mun    cve_ent nom_ent  nom_abr nom_zm    cvm   ext  pob20
##    <chr>  <chr>   <chr>      <chr>   <chr>    <chr>   <chr>   <dbl> <dbl>  <dbl>
##  1 09002  002     Azcapotza~ 09      Ciudad ~ CDMX    Valle ~  9.01  33.5 4.32e5
##  2 09003  003     Coyoacán   09      Ciudad ~ CDMX    Valle ~  9.01  53.9 6.14e5
##  3 09004  004     Cuajimalp~ 09      Ciudad ~ CDMX    Valle ~  9.01  71.2 2.18e5
##  4 09005  005     Gustavo A~ 09      Ciudad ~ CDMX    Valle ~  9.01  87.9 1.17e6
##  5 09006  006     Iztacalco  09      Ciudad ~ CDMX    Valle ~  9.01  23.1 4.05e5
##  6 09007  007     Iztapalapa 09      Ciudad ~ CDMX    Valle ~  9.01 113.  1.84e6
##  7 09008  008     La Magdal~ 09      Ciudad ~ CDMX    Valle ~  9.01  63.4 2.48e5
##  8 09009  009     Milpa Alta 09      Ciudad ~ CDMX    Valle ~  9.01 298.  1.53e5
##  9 09010  010     Álvaro Ob~ 09      Ciudad ~ CDMX    Valle ~  9.01  96.2 7.59e5
## 10 09011  011     Tláhuac    09      Ciudad ~ CDMX    Valle ~  9.01  85.8 3.92e5
## # ... with 66 more rows, and 45 more variables: pob20_h <dbl>, pob20_m <dbl>,
## #   positivos <dbl>, defuncione <dbl>, pos_mil <dbl>, pos_hab <dbl>,
## #   def_hab <dbl>, ss <dbl>, ppob_sines <dbl>, ppob_basi <dbl>,
## #   ppob_media <dbl>, ppob_sup <dbl>, ocviv <dbl>, occu <dbl>,
## #   pintegra4_ <dbl>, pintegra6_ <dbl>, pintegra8_ <dbl>, ppob_5_o_m <dbl>,
## #   ppob_3_o_m <dbl>, ppob_1 <dbl>, ppob_1dorm <dbl>, ppob_2dorm <dbl>,
## #   ppob_3dorm <dbl>, pviv_ocu5_ <dbl>, pviv_ocu7_ <dbl>, pviv_ocu9_ <dbl>, ...

El resultado de la función anterior ordena nuestra base de menor a mayor, con base en la clave municipal. Además, es posible incluir varios criterios de ordenación, por ejemplo, si tuvieras los campos año, mes y día podría ordenarse conforme al calendario. En el caso del ejemplo siguiente, primero se ordena con arreglo a la clave de entidad y luego con respecto a la clave municipal y luego por la extensión territorial por cada mil habitantes:

covid_zmvm %>% dplyr::arrange(cvemun,ext)

## # A tibble: 76 x 55
##    cvemun cve_mun nom_mun    cve_ent nom_ent  nom_abr nom_zm    cvm   ext  pob20
##    <chr>  <chr>   <chr>      <chr>   <chr>    <chr>   <chr>   <dbl> <dbl>  <dbl>
##  1 09002  002     Azcapotza~ 09      Ciudad ~ CDMX    Valle ~  9.01  33.5 4.32e5
##  2 09003  003     Coyoacán   09      Ciudad ~ CDMX    Valle ~  9.01  53.9 6.14e5
##  3 09004  004     Cuajimalp~ 09      Ciudad ~ CDMX    Valle ~  9.01  71.2 2.18e5
##  4 09005  005     Gustavo A~ 09      Ciudad ~ CDMX    Valle ~  9.01  87.9 1.17e6
##  5 09006  006     Iztacalco  09      Ciudad ~ CDMX    Valle ~  9.01  23.1 4.05e5
##  6 09007  007     Iztapalapa 09      Ciudad ~ CDMX    Valle ~  9.01 113.  1.84e6
##  7 09008  008     La Magdal~ 09      Ciudad ~ CDMX    Valle ~  9.01  63.4 2.48e5
##  8 09009  009     Milpa Alta 09      Ciudad ~ CDMX    Valle ~  9.01 298.  1.53e5
##  9 09010  010     Álvaro Ob~ 09      Ciudad ~ CDMX    Valle ~  9.01  96.2 7.59e5
## 10 09011  011     Tláhuac    09      Ciudad ~ CDMX    Valle ~  9.01  85.8 3.92e5
## # ... with 66 more rows, and 45 more variables: pob20_h <dbl>, pob20_m <dbl>,
## #   positivos <dbl>, defuncione <dbl>, pos_mil <dbl>, pos_hab <dbl>,
## #   def_hab <dbl>, ss <dbl>, ppob_sines <dbl>, ppob_basi <dbl>,
## #   ppob_media <dbl>, ppob_sup <dbl>, ocviv <dbl>, occu <dbl>,
## #   pintegra4_ <dbl>, pintegra6_ <dbl>, pintegra8_ <dbl>, ppob_5_o_m <dbl>,
## #   ppob_3_o_m <dbl>, ppob_1 <dbl>, ppob_1dorm <dbl>, ppob_2dorm <dbl>,
## #   ppob_3dorm <dbl>, pviv_ocu5_ <dbl>, pviv_ocu7_ <dbl>, pviv_ocu9_ <dbl>, ...
…
